11 Importación de datos | R para Ciencia de Datos
…
(Nota el uso de readr_example() que encuentra la ruta a uno de los archivos incluidos en el paquete)
Hay dos resultados impresos en la consola: la especificación de columna generada al mirar las primeras 1000 filas, y las primeras cinco fallas de análisis. Siempre es una buena idea extraer explícitamente los problemas(), así puedes explorarlos en mayor profundidad:

problems(desafio)
#> # A tibble: 1,000 x 5
#>     row col   expected        actual    file                               
#>   <int> <chr> <chr>           <chr>     <chr>                              
#> 1  1001 y     1/0/T/F/TRUE/F… 2015-01-… '/home/travis/R/Library/readr/extd…
#> 2  1002 y     1/0/T/F/TRUE/F… 2018-05-… '/home/travis/R/Library/readr/extd…
#> 3  1003 y     1/0/T/F/TRUE/F… 2015-09-… '/home/travis/R/Library/readr/extd…
#> 4  1004 y     1/0/T/F/TRUE/F… 2012-11-… '/home/travis/R/Library/readr/extd…
#> 5  1005 y     1/0/T/F/TRUE/F… 2020-01-… '/home/travis/R/Library/readr/extd…
#> 6  1006 y     1/0/T/F/TRUE/F… 2016-04-… '/home/travis/R/Library/readr/extd…
#> # … with 994 more rows
…
Cada función parse_xyz() tiene su correspondiente función col_xyz(). Utilizas parse_xyz() cuando los datos se encuentran en un vector de caracteres que ya está disponible en R, usas col_xyz cuando quieres decirle a readr cómo cargar los datos.
Recomiendo proporcionar siempre col_types, estructurándolos a partir de la impresión en consola provista por readr. Esto asegura que tienes un script para importar datos consistente y reproducible. Si confías en las deducciones por defecto y tus datos cambian, readr continuará leyéndolos. Si quieres ser realmente estricto, emplea stop_for_problems() (del inglés, alto cuando hay problemas): Esto devolverá un mensaje de error y detendrá tu script si hay cualquier problema con la análisis.
### Otras estrategias
Hay unas pocas estrategias generales más para ayudarte a analizar archivos:
* En el ejemplo previo, simplemente fuimos desafortunados: si miramos solo una fila más que el número por defecto, podemos analizar correctamente en un solo intento:

```r
desafio2 <- read_csv(readr_example("challenge.csv"), guess_max = 1001)
#> Parsed with column specification:
#> cols(
#>   x = col_double(),
#>   y = col_date(format = "")
#> )
desafio2
#> # A tibble: 2,000 x 2
#>       x y         
#>   <dbl> <date>    
#> 1   404 NA        
#> 2  4172 NA        
#> 3  3004 NA        
#> 4   787 NA        
#> 5    37 NA        
#> 6  2332 NA        
#> # … with 1,994 more rows
```
…
Codificar siempre las cadenas de texto en UTF-8.

Guardar fechas y fechas-horas en formato ISO8601, por lo que son fácilmente analizadas en cualquier sitio.
Si quieres exportar un archivo csv a Excel, utiliza write_excel_csv() —esto escribe un caracter especial (un símbolo de orden de bytes) al comienzo del archivo que le dice a Excel que estás utilizando codificación UTF-8.
Los argumentos más importantes son x (el marco de datos a guardar), y path (la ubicación donde lo guardarás). También puedes especificar cómo se escriben los valores ausentes con na, y si quieres append (agregarlo) a un archivo existente.

write_csv(desafio, "desafio.csv")

Fíjate que la información sobre el tipo de datos se pierde cuando guardas en csv:

desafio
#> # A tibble: 2,000 x 2
#>   x     y    
#>   <chr> <chr>
#> 1 404   <NA> 
#> 2 4172  <NA> 
#> 3 3004  <NA> 
#> 4 787   <NA> 
#> 5 37    <NA> 
#> 6 2332  <NA> 
#> # … with 1,994 more rows
write_csv(desafio, "desafio-2.csv")
read_csv("desafio-2.csv")
#> Parsed with column specification:
#> cols(
#>   x = col_double(),
#>   y = col_logical()
#> )
#> # A tibble: 2,000 x 2
#>       x y    
#>   <dbl> <lgl>
#> 1   404 NA   
#> 2  4172 NA   
#> 3  3004 NA   
#> 4   787 NA   
#> 5    37 NA   
#> 6  2332 NA   
#> # … with 1,994 more rows

Esto hace a los CSV poco confiables para almacenar en caché los resultados provisorios— necesitas recrear la especificación de las columnas cada vez que los cargas. Hay dos alternativas:
1. write_rds() and read_rds() son envoltorios uniformes sobre las funciones base readRDS() y saveRDS(). Éstas almacenan datos en un formato binario personalizado de R llamado RDS:

```r
write_rds(desafio, "desafio.rds")
read_rds("desafio.rds")
#> # A tibble: 2,000 x 2
#>   x     y    
#>   <chr> <chr>
#> 1 404   <NA> 
#> 2 4172  <NA> 
#> 3 3004  <NA> 
#> 4 787   <NA> 
#> 5 37    <NA> 
#> 6 2332  <NA> 
#> # … with 1,994 more rows
```

El paquete feather implementa un formato rápido de archivos binarios que puede compartirse a través de lenguajes de programación:

library(feather)
write_feather(desafio, "desafio.feather")
read_feather("desafio.feather")
#> # A tibble: 2,000 x 2
#>       x      y
#>   <dbl> <date>
#> 1   404   <NA>
#> 2  4172   <NA>
#> 3  3004   <NA>
#> 4   787   <NA>
#> 5    37   <NA>
#> 6  2332   <NA>
#> # ... with 1,994 more rows
…
